Lab 5 TEAM: ALL STARS
…
 Summary of milk produced by state in 1998:

## # A tibble: 50 x 2
##    state       Sum1998
##    <fct>         <dbl>
##  1 Alabama         386
##  2 Alaska           14
##  3 Arizona        2680
##  4 Arkansas        540
##  5 California    27620
##  6 Colorado       1689
##  7 Connecticut     529
##  8 Delaware        159
##  9 Florida        2337
## 10 Georgia        1437
## #  with 40 more rows
…
Summary of milk produced by state in 1999:

## # A tibble: 50 x 2
##    state       milk_million
##    <fct>              <dbl>
##  1 Alabama              376
##  2 Alaska                14
##  3 Arizona             2931
##  4 Arkansas             520
##  5 California         30444
##  6 Colorado            1728
##  7 Connecticut          520
##  8 Delaware             145
##  9 Florida             2398
## 10 Georgia             1449
## #  with 40 more rows
…
